Preparing French Creek Data for Stream Metabolism Modeling • preMetabolizer
…
nasa_dat
#> # A tibble: 287 × 3
#>    datetime            bp_kPa light.obs
#>    <dttm>               <dbl>     <dbl>
#>  1 2012-09-18 11:15:00   69.4       0  
#>  2 2012-09-18 11:30:00   69.4       0  
#>  3 2012-09-18 11:45:00   69.4       0  
#>  4 2012-09-18 12:00:00   69.4       0  
#>  5 2012-09-18 12:15:00   69.4      42.6
#>  6 2012-09-18 12:30:00   69.4      85.1
#>  7 2012-09-18 12:45:00   69.5     128. 
#>  8 2012-09-18 13:00:00   69.5     170. 
#>  9 2012-09-18 13:15:00   69.5     274. 
#> 10 2012-09-18 13:30:00   69.5     379. 
#> # ℹ 277 more rows
…
