Working with Iowa Environmental Mesonet data • preMetabolizer
…
Station metadata for a network includes station identifiers, names, coordinates, archive dates, and the station time zone when IEM provides it.

cache_file <- file.path(cache_dir, "iem_stations_ia_asos.rds")
if (!file.exists(cache_file)) {
  ia_asos <- iem_stations("IA_ASOS")
  saveRDS(ia_asos, cache_file)
} else {
  ia_asos <- readRDS(cache_file)
}

ia_asos |>
  select(station_id, station_name, network, tzname, archive_begin, longitude, latitude) |>
  arrange(station_id)
#> # A tibble: 62 × 7
#>    station_id station_name network tzname archive_begin       longitude latitude
#>    <chr>      <chr>        <chr>   <chr>  <dttm>                  <dbl>    <dbl>
#>  1 ADU        AUDUBON      IA_ASOS Ameri… 1994-12-25 00:00:00     -94.9     41.7
#>  2 AIO        ATLANTIC     IA_ASOS Ameri… 1995-04-23 00:00:00     -95.0     41.4
#>  3 ALO        Waterloo     IA_ASOS Ameri… 1949-01-01 00:00:00     -92.4     42.6
#>  4 AMW        Ames         IA_ASOS Ameri… 1996-09-30 00:00:00     -93.6     42.0
#>  5 AWG        WASHINGTON   IA_ASOS Ameri… 1994-12-25 00:00:00     -91.7     41.3
#>  6 AXA        Algona       IA_ASOS Ameri… 1994-12-25 00:00:00     -94.3     43.1
#>  7 BNW        BOONE MUNI   IA_ASOS Ameri… 1995-03-01 00:00:00     -93.8     42.0
#>  8 BRL        BURLINGTON   IA_ASOS Ameri… 1931-09-01 00:00:00     -91.1     40.8
#>  9 CAV        CLARION      IA_ASOS Ameri… 1994-12-25 00:00:00     -93.8     42.7
#> 10 CBF        COUNCIL BLU… IA_ASOS Ameri… 1994-12-25 00:00:00     -95.8     41.3
#> # ℹ 52 more rows
…
iem_current() requires at least one filter. You can request all current observations in a network, stations within a network, stations by forecast office, or one or more station identifiers.

cache_file <- file.path(cache_dir, "iem_current_ia_asos.rds")
if (!file.exists(cache_file)) {
  current <- iem_current(network = "IA_ASOS")
  saveRDS(current, cache_file)
} else {
  current <- readRDS(cache_file)
}

current |>
  select(station_id, station_name, utc_valid, tmpf, dwpf, sknt, drct, mslp) |>
  arrange(station_id)
#> # A tibble: 61 × 8
#>    station_id station_name   utc_valid            tmpf  dwpf  sknt  drct  mslp
#>    <chr>      <chr>          <dttm>              <dbl> <dbl> <dbl> <dbl> <dbl>
#>  1 ADU        AUDUBON        2026-07-10 02:15:00  73.4  71.6     0     0   NA 
#>  2 AIO        ATLANTIC       2026-07-10 01:55:00  77    73.4     3   320   NA 
#>  3 ALO        Waterloo       2026-07-10 02:01:00  78    72       3   230   NA 
#>  4 AMW        Ames           2026-07-10 01:53:00  78    73       3   270 1010.
#>  5 AWG        WASHINGTON     2026-07-10 02:15:00  NA    NA       0     0   NA 
#>  6 AXA        Algona         2026-07-10 01:55:00  73.4  73.4     4    30   NA 
#>  7 BNW        BOONE MUNI     2026-07-10 02:15:00  77    71.6     0     0   NA 
#>  8 BRL        BURLINGTON     2026-07-10 01:53:00  74    73       0     0 1010.
#>  9 CAV        CLARION        2026-07-10 02:15:00  73.4  73.4     5    10   NA 
#> 10 CBF        COUNCIL BLUFFS 2026-07-10 01:55:00  80.6  71.6     0     0   NA 
#> # ℹ 51 more rows
…
cache_file <- file.path(cache_dir, "iem_obhistory_dsm_2024-06-01.rds")
if (!file.exists(cache_file)) {
  obs <- iem_obhistory(
    station = "DSM",
    network = "IA_ASOS",
    date = "2024-06-01"
  )
  saveRDS(obs, cache_file)
} else {
  obs <- readRDS(cache_file)
}

obs |>
  select(utc_valid, local_valid, tmpf, dwpf, sknt, drct, p01_i)
#> # A tibble: 297 × 7
#>    utc_valid           local_valid       tmpf  dwpf  sknt  drct p01_i
#>    <dttm>              <chr>            <dbl> <dbl> <dbl> <dbl> <dbl>
#>  1 2024-06-01 05:00:00 2024-06-01T00:00    NA    NA     5   140    NA
#>  2 2024-06-01 05:05:00 2024-06-01T00:05    NA    NA     5   140    NA
#>  3 2024-06-01 05:10:00 2024-06-01T00:10    NA    NA     5   140    NA
#>  4 2024-06-01 05:15:00 2024-06-01T00:15    NA    NA     5   140    NA
#>  5 2024-06-01 05:20:00 2024-06-01T00:20    NA    NA     5   130    NA
#>  6 2024-06-01 05:25:00 2024-06-01T00:25    NA    NA     5   130    NA
#>  7 2024-06-01 05:30:00 2024-06-01T00:30    NA    NA     5   120    NA
#>  8 2024-06-01 05:35:00 2024-06-01T00:35    NA    NA     5   110    NA
#>  9 2024-06-01 05:40:00 2024-06-01T00:40    NA    NA     4   100    NA
#> 10 2024-06-01 05:45:00 2024-06-01T00:45    NA    NA     5   130    NA
#> # ℹ 287 more rows
…
dsm_daily |>
  select(station_id, date, max_tmpf, min_tmpf, precip) |>
  arrange(date)
#> # A tibble: 30 × 5
#>    station_id date       max_tmpf min_tmpf precip
#>    <chr>      <date>        <dbl>    <dbl>  <dbl>
#>  1 DSM        2024-06-01       82       63 0     
#>  2 DSM        2024-06-02       83       63 0     
#>  3 DSM        2024-06-03       88       71 0     
#>  4 DSM        2024-06-04       84       63 0.63  
#>  5 DSM        2024-06-05       85       56 0.0001
#>  6 DSM        2024-06-06       83       62 0     
#>  7 DSM        2024-06-07       83       58 0.02  
#>  8 DSM        2024-06-08       80       59 0     
#>  9 DSM        2024-06-09       84       56 0     
#> 10 DSM        2024-06-10       76       52 0     
#> # ℹ 20 more rows

For a one-day network request, omit station and supply date.

cache_file <- file.path(cache_dir, "iem_daily_ia_asos_2024-06-01.rds")
if (!file.exists(cache_file)) {
  ia_day <- iem_daily("IA_ASOS", date = "2024-06-01")
  saveRDS(ia_day, cache_file)
} else {
  ia_day <- readRDS(cache_file)
}

ia_day |>
  select(station_id, date, max_tmpf, min_tmpf, precip) |>
  arrange(desc(date))
#> # A tibble: 61 × 5
#>    station_id date       max_tmpf min_tmpf precip
#>    <chr>      <date>        <dbl>    <dbl>  <dbl>
#>  1 ADU        2024-06-01     77       59     0.05
#>  2 AIO        2024-06-01     77       62.6   0   
#>  3 ALO        2024-06-01     78       61     0   
#>  4 AMW        2024-06-01     81       60     0.13
#>  5 AWG        2024-06-01     69.8     59    NA   
#>  6 AXA        2024-06-01     75.2     60.8   0.04
#>  7 BNW        2024-06-01     77       62.6   0.14
#>  8 BRL        2024-06-01     71       57     0.47
#>  9 CAV        2024-06-01     77       60.8  NA   
#> 10 CBF        2024-06-01     77       59    NA   
#> # ℹ 51 more rows
…
