Downloading Kansas Mesonet data • preMetabolizer
…
Explore the variable catalog

ks_meso_vars() retrieves and parses the current Kansas Mesonet variable metadata, including CSV headings, variable names, units, and descriptions.

mesonet_vars <- ks_meso_vars()

Search the catalog to find variables of interest:

mesonet_vars |>
  filter(grepl("temp|precip|solar|humidity", desc, ignore.case = TRUE)) |>
  select(var, tidy_name, units, desc)
#> # A tibble: 44 × 4
#>    var                    tidy_name               units desc                    
#>    <chr>                  <chr>                   <chr> <chr>                   
#>  1 AirTemperature.avg     air_temperature_avg     °C    Average air temperature…
#>  2 AirTemperature.min     air_temperature_min     °C    Min air temperature at …
#>  3 AirTemperature.max     air_temperature_max     °C    Max air temperature at …
#>  4 AirTemperature.smp     air_temperature_smp     °C    Most recent 5 second sa…
#>  5 AirTemperature.10m.avg air_temperature_10m_avg °C    Average air temperature…
#>  6 AirTemperature.10m.min air_temperature_10m_min °C    Min air temperature at …
#>  7 AirTemperature.10m.max air_temperature_10m_max °C    Max air temperature at …
#>  8 RelativeHumidity.avg   relative_humidity_avg   %     Average relative humidi…
#>  9 RelativeHumidity.max   relative_humidity_max   %     Max relative humidity a…
#> 10 RelativeHumidity.min   relative_humidity_min   %     Min relative humidity a…
#> # ℹ 34 more rows
…
