…
``` r

wx_stations <- get_noaa_stations(
  bbox       = bbox,
  data_types = c("TMAX", "TMIN", "PRCP"),
  start_date = wy_start,
  end_date   = wy_end
)

wx_stations |>
  select(station_id, station_name, latitude, longitude, start_date, end_date) |>
  arrange(station_name)
#> # A tibble: 21 × 6
#>    station_id  station_name             latitude longitude start_date end_date  
#>    <chr>       <chr>                       <dbl>     <dbl> <date>     <date>    
#>  1 USC00140911 BLUE RAPIDS, KS US           39.7     -96.7 1905-01-01 2026-06-08
#>  2 USC00141559 CLAY CENTER, KS US           39.4     -97.1 1902-04-16 2026-06-08
#>  3 USC00141593 CLIFTON, KS US               39.6     -97.3 1931-04-01 2026-06-05
#>  4 USC00141761 CONCORDIA 2 SE, KS US        39.6     -97.6 2003-01-01 2026-06-06
#>  5 USC00141762 CONCORDIA 2 SSE, KS US       39.5     -97.7 2024-03-21 2026-06-08
#>  6 USC00141858 COTTONWOOD FALLS, KS US      38.4     -96.5 1902-12-01 2025-02-28
#>  7 USC00141867 COUNCIL GROVE LAKE, KS …     38.7     -96.5 1964-06-01 2026-06-01
#>  8 USC00142548 EMPORIA 3 NW, KS US          38.4     -96.2 1979-06-01 2026-06-08
#>  9 USW00003936 MANHATTAN ASOS, KS US        39.1     -96.7 1960-06-01 2026-06-07
#> 10 USC00145039 MARION RESERVOIR, KS US      38.4     -97.1 1966-01-01 2026-06-05
#> # ℹ 11 more rows
```
…
