Finding NOAA stations • preMetabolizer
…
Filter to stations that carry the variables you need and span at least part of water year 2025:

wx_stations <- get_noaa_stations(
  bbox       = bbox,
  data_types = c("TMAX", "TMIN", "PRCP"),
  start_date = wy_start,
  end_date   = wy_end
)

wx_stations |>
  select(station_id, station_name, latitude, longitude, start_date, end_date) |>
  arrange(station_name)
#> # A tibble: 47 × 6
#>    station_id  station_name           latitude longitude start_date end_date  
#>    <chr>       <chr>                     <dbl>     <dbl> <date>     <date>    
#>  1 USC00140010 ABILENE, KS US             38.9     -97.2 1893-01-01 2026-04-30
#>  2 USC00140682 BELLEVILLE, KS US          39.8     -97.6 1935-04-01 2026-06-05
#>  3 USC00140877 BLAINE, KS US              39.5     -96.4 1955-03-02 2026-04-15
#>  4 USC00140911 BLUE RAPIDS, KS US         39.7     -96.7 1905-01-01 2026-06-05
#>  5 USC00141435 CHAPMAN, KS US             39.0     -97.0 1904-02-01 2026-06-06
#>  6 USC00141559 CLAY CENTER, KS US         39.4     -97.1 1902-04-16 2026-06-06
#>  7 USC00141593 CLIFTON, KS US             39.6     -97.3 1931-04-01 2026-06-05
#>  8 USC00141761 CONCORDIA 2 SE, KS US      39.6     -97.6 2003-01-01 2026-06-04
#>  9 USC00141762 CONCORDIA 2 SSE, KS US     39.5     -97.7 2024-03-21 2026-06-06
#> 10 USW00013984 CONCORDIA ASOS, KS US      39.6     -97.7 1885-05-01 2026-06-05
#> # ℹ 37 more rows
…
