Working with TexMesonet data • preMetabolizer
…
The active and displayed arguments make it easy to focus on stations that are currently operating and shown by TexMesonet.

cache_file <- file.path(cache_dir, "tex_meso_stations_active.rds")
if (!file.exists(cache_file)) {
  active_stations <- tex_meso_stations(active = TRUE, displayed = TRUE)
  saveRDS(active_stations, cache_file)
} else {
  active_stations <- readRDS(cache_file)
}

active_stations |>
  select(station_id, station_name, display_id, county, latitude, longitude) |>
  arrange(county, station_name)
#> # A tibble: 126 × 6
#>    station_id station_name            display_id county  latitude longitude
#>         <int> <chr>                   <chr>      <chr>      <dbl>     <dbl>
#>  1          6 Love Creek Preserve     BNLCP      Bandera     29.8     -99.4
#>  2         69 Phyllis Thomas Bandera  BNPTB      Bandera     29.7     -99.4
#>  3         37 Pecan Grove Farms       BPPGF      Bastrop     30.2     -97.5
#>  4        102 Pawnee Ranch            BEPAW      Bee         28.6     -98.0
#>  5         34 City of Rogers          BLCOR      Bell        30.9     -97.2
#>  6         33 City of Troy            BLCOT      Bell        31.2     -97.3
#>  7         35 Doc Curb Pump Station   BLDOC      Bell        31.0     -97.5
#>  8         36 River Ridge Ranch       BLRRR      Bell        31.0     -97.8
#>  9        107 EAA Field Research Park BXEAA      Bexar       29.7     -98.4
#> 10          2 Altwein Rd              BCALT      Blanco      30.1     -98.5
#> # ℹ 116 more rows
…
The charting-fields endpoint is useful when you want to prepare local meteorological covariates for a stream site. The example below summarizes hourly temperature, humidity, precipitation, and wind speed from the recent station data.

hourly_weather <- recent |>
  mutate(hour = lubridate::floor_date(date_time, "hour")) |>
  group_by(hour) |>
  summarise(
    air_temp_C = mean(air_temp, na.rm = TRUE),
    humidity_pct = mean(humidity, na.rm = TRUE),
    precip_mm = sum(precip, na.rm = TRUE),
    wind_speed_m_s = mean(wind_speed, na.rm = TRUE),
    .groups = "drop"
  )

hourly_weather
#> # A tibble: 25 × 5
#>    hour                air_temp_C humidity_pct precip_mm wind_speed_m_s
#>    <dttm>                   <dbl>        <dbl>     <dbl>          <dbl>
#>  1 2026-07-09 03:00:00       27.6         61.0         0          1.09 
#>  2 2026-07-09 04:00:00       26.8         67.5         0          2.50 
#>  3 2026-07-09 05:00:00       25.9         75.8         0          0.999
#>  4 2026-07-09 06:00:00       24.8         78.3         0          1.40 
#>  5 2026-07-09 07:00:00       23.9         79.8         0          2.12 
#>  6 2026-07-09 08:00:00       23.3         81.9         0          1.50 
#>  7 2026-07-09 09:00:00       22.8         84.5         0          0.651
#>  8 2026-07-09 10:00:00       22.4         86.4         0          1.79 
#>  9 2026-07-09 11:00:00       22.0         87.7         0          0.755
#> 10 2026-07-09 12:00:00       22.1         85.6         0          1.07 
#> # ℹ 15 more rows
…
