…
``` r

cache_file <- file.path(cache_dir, "tex_meso_stations_active.rds")
if (!file.exists(cache_file)) {
  active_stations <- tex_meso_stations(active = TRUE, displayed = TRUE)
  saveRDS(active_stations, cache_file)
} else {
  active_stations <- readRDS(cache_file)
}

active_stations |>
  select(station_id, station_name, display_id, county, latitude, longitude) |>
  arrange(county, station_name)
#> # A tibble: 126 × 6
#>    station_id station_name            display_id county  latitude longitude
#>         <int> <chr>                   <chr>      <chr>      <dbl>     <dbl>
#>  1          6 Love Creek Preserve     BNLCP      Bandera     29.8     -99.4
#>  2         69 Phyllis Thomas Bandera  BNPTB      Bandera     29.7     -99.4
#>  3         37 Pecan Grove Farms       BPPGF      Bastrop     30.2     -97.5
#>  4        102 Pawnee Ranch            BEPAW      Bee         28.6     -98.0
#>  5         34 City of Rogers          BLCOR      Bell        30.9     -97.2
#>  6         33 City of Troy            BLCOT      Bell        31.2     -97.3
#>  7         35 Doc Curb Pump Station   BLDOC      Bell        31.0     -97.5
#>  8         36 River Ridge Ranch       BLRRR      Bell        31.0     -97.8
#>  9        107 EAA Field Research Park BXEAA      Bexar       29.7     -98.4
#> 10          2 Altwein Rd              BCALT      Blanco      30.1     -98.5
#> # ℹ 116 more rows
```
…
``` r

hourly_weather <- recent |>
  mutate(hour = lubridate::floor_date(date_time, "hour")) |>
  group_by(hour) |>
  summarise(
    air_temp_C = mean(air_temp, na.rm = TRUE),
    humidity_pct = mean(humidity, na.rm = TRUE),
    precip_mm = sum(precip, na.rm = TRUE),
    wind_speed_m_s = mean(wind_speed, na.rm = TRUE),
    .groups = "drop"
  )

hourly_weather
#> # A tibble: 25 × 5
#>    hour                air_temp_C humidity_pct precip_mm wind_speed_m_s
#>    <dttm>                   <dbl>        <dbl>     <dbl>          <dbl>
#>  1 2026-07-13 21:00:00       31.7         48.4     0            1.15   
#>  2 2026-07-13 22:00:00       32.2         43.8     0            1.01   
#>  3 2026-07-13 23:00:00       30.3         56.0     0            0.350  
#>  4 2026-07-14 00:00:00       24.3         87.7    23.6          1.26   
#>  5 2026-07-14 01:00:00       22.2         99.8     9.65         0.0123 
#>  6 2026-07-14 02:00:00       22.3         99.9     4.32         0      
#>  7 2026-07-14 03:00:00       22.2         99.9     5.33         0      
#>  8 2026-07-14 04:00:00       22.4         99.9     2.03         0.00988
#>  9 2026-07-14 05:00:00       22.9         99.9     0.508        0.0725 
#> 10 2026-07-14 06:00:00       23.2         99.9     0            0      
#> # ℹ 15 more rows
```
…
